{
   "DEBUG": false,
   "SQLALCHEMY_DATABASE_URI": "sqlite:///:memory:",
   "SQLALCHEMY_ECHO": false,
   "SQLALCHEMY_TRACK_MODIFICATIONS": true,
   "TESTING": false,
   "batch-filter-root": "/app/fk_batch_filters",
   "cache-dir-name": "_cache",
   "crawler-html-parser": "html5lib",
   "crawler-referer": "https://www.shopify.com/",
   "crawler-socket-timeout": 15,
   "crawler-user-agent": "Mozilla/5.0 (compatible; Googlebot/2.1; +http://www.google.com/bot.html)",
   "db-database": "postgres",
   "db-hostname": "localhost",
   "db-password": "PLEASE OVERRIDE THIS DEFAULT",
   "db-port": "5432",
   "db-username": "PLEASE OVERRIDE THIS DEFAULT",
   "smtp-hostname": "PLEASE OVERRIDE THIS DEFAULT",
   "smtp-port": "2525",
   "smtp-user": "PLEASE OVERRIDE THIS DEFAULT",
   "smtp-password": "PLEASE OVERRIDE THIS DEFAULT",
   "smtp-headers": "PLEASE OVERRIDE THIS DEFAULT",
   "influx-dbname": "sales",
   "influx-hostname": "localhost",
   "influx-password": "PLEASE OVERRIDE THIS DEFAULT",
   "influx-port": "8086",
   "influx-username": "PLEASE OVERRIDE THIS DEFAULT",
   "n2report-dir-name": "_n2report",
   "n2report-index-name": "index.html",
   "overwatch-password": "PLEASE OVERRIDE THIS DEFAULT",
   "overwatch-user": "PLEASE OVERRIDE THIS DEFAULT",
   "preferred-url-scheme": "http",
   "printful-api-endpoint": "https://api.printful.com/",
   "printful-api-key": "PLEASE OVERRIDE THIS DEFAULT",
   "printful-api-key-base64": "PLEASE OVERRIDE THIS DEFAULT",
   "project": "Merchbot",
   "project-root": "/app",
   "screenshots-dir-name": "_screenshots",
   "screenshots-index-name": "screenshots.html",
   "shop-id-generator-batch-size": 200,
   "shop-id-generator-max": 25000000000,
   "shop-id-generator-min": 0,
   "shop-id-thread-count": 300,
   "shopify-api-key": "PLEASE OVERRIDE THIS DEFAULT",
   "shopify-api-secret": "PLEASE OVERRIDE THIS DEFAULT",
   "shopify-api-version": "2021-07",
   "shopify-api-throttle-limit": 1,
   "shopify-api-throttle-period": 3000,
   "shopify-app-name": "The name of this app",
   "shopify-app-domain": "PLEASE OVERRIDE THIS DEFAULT",
   "shopify-app-company-name": "The company name behind this app",
   "shopify-app-company-website": "The official website url for company behind this app",
   "shopify-app-author": "The author of this app",
   "shopify-app-author-email": "The email of the author of this app",
   "shopify-app-description": "The description of this app",
   "shopify-app-preferred-url-scheme": "https",
   "shopify-password": "PLEASE OVERRIDE THIS DEFAULT",
   "shopify-shared-secret": "PLEASE OVERRIDE THIS DEFAULT",
   "shopify-shop-name": "",
   "static-files-root": "/app/shopify_app/static",
   "webdriver-max-windows": 5,
   "webdriver-url": "http://127.0.0.1:4444/wd/hub",
   "webdriver-wait-time-sec": 10
}

